PWD /Users/luansitao/Documents/Introduction to Probability and Statistics/Chapter 3
INPUT /usr/local/texlive/2015/texmf.cnf
INPUT /usr/local/texlive/2015/texmf-dist/web2c/texmf.cnf
INPUT /usr/local/texlive/2015/texmf-var/web2c/pdftex/pdflatex.fmt
INPUT vein .tex
OUTPUT vein .log
INPUT /usr/local/texlive/2015/texmf-dist/tex/latex/beamer/beamer.cls
INPUT /usr/local/texlive/2015/texmf-dist/tex/latex/beamer/beamer.cls
INPUT /usr/local/texlive/2015/texmf-dist/tex/latex/beamer/beamerbasercs.sty
INPUT /usr/local/texlive/2015/texmf-dist/tex/latex/beamer/beamerbasercs.sty
INPUT /usr/local/texlive/2015/texmf-dist/tex/latex/beamer/beamerbasemodes.sty
INPUT /usr/local/texlive/2015/texmf-dist/tex/latex/beamer/beamerbasemodes.sty
INPUT /usr/local/texlive/2015/texmf-dist/tex/latex/beamer/beamerbasedecode.sty
INPUT /usr/local/texlive/2015/texmf-dist/tex/latex/beamer/beamerbasedecode.sty
INPUT /usr/local/texlive/2015/texmf-dist/tex/generic/oberdiek/ifpdf.sty
INPUT /usr/local/texlive/2015/texmf-dist/tex/generic/oberdiek/ifpdf.sty
INPUT /usr/local/texlive/2015/texmf-dist/tex/latex/beamer/beamerbaseoptions.sty
INPUT /usr/local/texlive/2015/texmf-dist/tex/latex/beamer/beamerbaseoptions.sty
INPUT /usr/local/texlive/2015/texmf-dist/tex/latex/graphics/keyval.sty
INPUT /usr/local/texlive/2015/texmf-dist/tex/latex/graphics/keyval.sty
INPUT /usr/local/texlive/2015/texmf-dist/tex/latex/geometry/geometry.sty
INPUT /usr/local/texlive/2015/texmf-dist/tex/latex/geometry/geometry.sty
INPUT /usr/local/texlive/2015/texmf-dist/tex/generic/oberdiek/ifvtex.sty
INPUT /usr/local/texlive/2015/texmf-dist/tex/generic/oberdiek/ifvtex.sty
INPUT /usr/local/texlive/2015/texmf-dist/tex/generic/ifxetex/ifxetex.sty
INPUT /usr/local/texlive/2015/texmf-dist/tex/generic/ifxetex/ifxetex.sty
INPUT /usr/local/texlive/2015/texmf-dist/tex/latex/base/size11.clo
INPUT /usr/local/texlive/2015/texmf-dist/tex/latex/base/size11.clo
INPUT /usr/local/texlive/2015/texmf-dist/fonts/map/fontname/texfonts.map
INPUT /usr/local/texlive/2015/texmf-dist/fonts/tfm/public/cm/cmr10.tfm
INPUT /usr/local/texlive/2015/texmf-dist/tex/latex/pgf/basiclayer/pgfcore.sty
INPUT /usr/local/texlive/2015/texmf-dist/tex/latex/pgf/basiclayer/pgfcore.sty
INPUT /usr/local/texlive/2015/texmf-dist/tex/latex/graphics/graphicx.sty
INPUT /usr/local/texlive/2015/texmf-dist/tex/latex/graphics/graphicx.sty
INPUT /usr/local/texlive/2015/texmf-dist/tex/latex/graphics/graphics.sty
INPUT /usr/local/texlive/2015/texmf-dist/tex/latex/graphics/graphics.sty
INPUT /usr/local/texlive/2015/texmf-dist/tex/latex/graphics/trig.sty
INPUT /usr/local/texlive/2015/texmf-dist/tex/latex/graphics/trig.sty
INPUT /usr/local/texlive/2015/texmf-dist/tex/latex/latexconfig/graphics.cfg
INPUT /usr/local/texlive/2015/texmf-dist/tex/latex/latexconfig/graphics.cfg
INPUT /usr/local/texlive/2015/texmf-dist/tex/latex/pdftex-def/pdftex.def
INPUT /usr/local/texlive/2015/texmf-dist/tex/latex/pdftex-def/pdftex.def
INPUT /usr/local/texlive/2015/texmf-dist/tex/generic/oberdiek/infwarerr.sty
INPUT /usr/local/texlive/2015/texmf-dist/tex/generic/oberdiek/infwarerr.sty
INPUT /usr/local/texlive/2015/texmf-dist/tex/generic/oberdiek/ltxcmds.sty
INPUT /usr/local/texlive/2015/texmf-dist/tex/generic/oberdiek/ltxcmds.sty
INPUT /usr/local/texlive/2015/texmf-dist/tex/latex/pgf/systemlayer/pgfsys.sty
INPUT /usr/local/texlive/2015/texmf-dist/tex/latex/pgf/systemlayer/pgfsys.sty
INPUT /usr/local/texlive/2015/texmf-dist/tex/latex/pgf/utilities/pgfrcs.sty
INPUT /usr/local/texlive/2015/texmf-dist/tex/latex/pgf/utilities/pgfrcs.sty
INPUT /usr/local/texlive/2015/texmf-dist/tex/generic/pgf/utilities/pgfutil-common.tex
INPUT /usr/local/texlive/2015/texmf-dist/tex/generic/pgf/utilities/pgfutil-common-lists.tex
INPUT /usr/local/texlive/2015/texmf-dist/tex/generic/pgf/utilities/pgfutil-latex.def
INPUT /usr/local/texlive/2015/texmf-dist/tex/latex/ms/everyshi.sty
INPUT /usr/local/texlive/2015/texmf-dist/tex/latex/ms/everyshi.sty
INPUT /usr/local/texlive/2015/texmf-dist/tex/generic/pgf/utilities/pgfrcs.code.tex
INPUT /usr/local/texlive/2015/texmf-dist/tex/generic/pgf/utilities/pgfrcs.code.tex
INPUT /usr/local/texlive/2015/texmf-dist/tex/generic/pgf/systemlayer/pgfsys.code.tex
INPUT /usr/local/texlive/2015/texmf-dist/tex/generic/pgf/systemlayer/pgfsys.code.tex
INPUT /usr/local/texlive/2015/texmf-dist/tex/generic/pgf/utilities/pgfkeys.code.tex
INPUT /usr/local/texlive/2015/texmf-dist/tex/generic/pgf/utilities/pgfkeysfiltered.code.tex
INPUT /usr/local/texlive/2015/texmf-dist/tex/generic/pgf/systemlayer/pgf.cfg
INPUT /usr/local/texlive/2015/texmf-dist/tex/generic/pgf/systemlayer/pgfsys-pdftex.def
INPUT /usr/local/texlive/2015/texmf-dist/tex/generic/pgf/systemlayer/pgfsys-pdftex.def
INPUT /usr/local/texlive/2015/texmf-dist/tex/generic/pgf/systemlayer/pgfsys-common-pdf.def
INPUT /usr/local/texlive/2015/texmf-dist/tex/generic/pgf/systemlayer/pgfsyssoftpath.code.tex
INPUT /usr/local/texlive/2015/texmf-dist/tex/generic/pgf/systemlayer/pgfsyssoftpath.code.tex
INPUT /usr/local/texlive/2015/texmf-dist/tex/generic/pgf/systemlayer/pgfsysprotocol.code.tex
INPUT /usr/local/texlive/2015/texmf-dist/tex/generic/pgf/systemlayer/pgfsysprotocol.code.tex
INPUT /usr/local/texlive/2015/texmf-dist/tex/latex/xcolor/xcolor.sty
INPUT /usr/local/texlive/2015/texmf-dist/tex/latex/xcolor/xcolor.sty
INPUT /usr/local/texlive/2015/texmf-dist/tex/latex/latexconfig/color.cfg
INPUT /usr/local/texlive/2015/texmf-dist/tex/latex/latexconfig/color.cfg
INPUT /usr/local/texlive/2015/texmf-dist/tex/generic/pgf/basiclayer/pgfcore.code.tex
INPUT /usr/local/texlive/2015/texmf-dist/tex/generic/pgf/basiclayer/pgfcore.code.tex
INPUT /usr/local/texlive/2015/texmf-dist/tex/generic/pgf/math/pgfmath.code.tex
INPUT /usr/local/texlive/2015/texmf-dist/tex/generic/pgf/math/pgfmathcalc.code.tex
INPUT /usr/local/texlive/2015/texmf-dist/tex/generic/pgf/math/pgfmathutil.code.tex
INPUT /usr/local/texlive/2015/texmf-dist/tex/generic/pgf/math/pgfmathparser.code.tex
INPUT /usr/local/texlive/2015/texmf-dist/tex/generic/pgf/math/pgfmathfunctions.code.tex
INPUT /usr/local/texlive/2015/texmf-dist/tex/generic/pgf/math/pgfmathfunctions.basic.code.tex
INPUT /usr/local/texlive/2015/texmf-dist/tex/generic/pgf/math/pgfmathfunctions.trigonometric.code.tex
INPUT /usr/local/texlive/2015/texmf-dist/tex/generic/pgf/math/pgfmathfunctions.random.code.tex
INPUT /usr/local/texlive/2015/texmf-dist/tex/generic/pgf/math/pgfmathfunctions.comparison.code.tex
INPUT /usr/local/texlive/2015/texmf-dist/tex/generic/pgf/math/pgfmathfunctions.base.code.tex
INPUT /usr/local/texlive/2015/texmf-dist/tex/generic/pgf/math/pgfmathfunctions.round.code.tex
INPUT /usr/local/texlive/2015/texmf-dist/tex/generic/pgf/math/pgfmathfunctions.misc.code.tex
INPUT /usr/local/texlive/2015/texmf-dist/tex/generic/pgf/math/pgfmathfunctions.integerarithmetics.code.tex
INPUT /usr/local/texlive/2015/texmf-dist/tex/generic/pgf/math/pgfmathfloat.code.tex
INPUT /usr/local/texlive/2015/texmf-dist/tex/generic/pgf/basiclayer/pgfcorepoints.code.tex
INPUT /usr/local/texlive/2015/texmf-dist/tex/generic/pgf/basiclayer/pgfcorepathconstruct.code.tex
INPUT /usr/local/texlive/2015/texmf-dist/tex/generic/pgf/basiclayer/pgfcorepathusage.code.tex
INPUT /usr/local/texlive/2015/texmf-dist/tex/generic/pgf/basiclayer/pgfcorescopes.code.tex
INPUT /usr/local/texlive/2015/texmf-dist/tex/generic/pgf/basiclayer/pgfcoregraphicstate.code.tex
INPUT /usr/local/texlive/2015/texmf-dist/tex/generic/pgf/basiclayer/pgfcoretransformations.code.tex
INPUT /usr/local/texlive/2015/texmf-dist/tex/generic/pgf/basiclayer/pgfcorequick.code.tex
INPUT /usr/local/texlive/2015/texmf-dist/tex/generic/pgf/basiclayer/pgfcoreobjects.code.tex
INPUT /usr/local/texlive/2015/texmf-dist/tex/generic/pgf/basiclayer/pgfcorepathprocessing.code.tex
INPUT /usr/local/texlive/2015/texmf-dist/tex/generic/pgf/basiclayer/pgfcorearrows.code.tex
INPUT /usr/local/texlive/2015/texmf-dist/tex/generic/pgf/basiclayer/pgfcoreshade.code.tex
INPUT /usr/local/texlive/2015/texmf-dist/tex/generic/pgf/basiclayer/pgfcoreimage.code.tex
INPUT /usr/local/texlive/2015/texmf-dist/tex/generic/pgf/basiclayer/pgfcoreexternal.code.tex
INPUT /usr/local/texlive/2015/texmf-dist/tex/generic/pgf/basiclayer/pgfcorelayers.code.tex
INPUT /usr/local/texlive/2015/texmf-dist/tex/generic/pgf/basiclayer/pgfcoretransparency.code.tex
INPUT /usr/local/texlive/2015/texmf-dist/tex/generic/pgf/basiclayer/pgfcorepatterns.code.tex
INPUT /usr/local/texlive/2015/texmf-dist/tex/latex/pgf/utilities/xxcolor.sty
INPUT /usr/local/texlive/2015/texmf-dist/tex/latex/pgf/utilities/xxcolor.sty
INPUT /usr/local/texlive/2015/texmf-dist/tex/generic/oberdiek/atbegshi.sty
INPUT /usr/local/texlive/2015/texmf-dist/tex/generic/oberdiek/atbegshi.sty
INPUT /usr/local/texlive/2015/texmf-dist/tex/latex/hyperref/hyperref.sty
INPUT /usr/local/texlive/2015/texmf-dist/tex/latex/hyperref/hyperref.sty
INPUT /usr/local/texlive/2015/texmf-dist/tex/generic/oberdiek/hobsub-hyperref.sty
INPUT /usr/local/texlive/2015/texmf-dist/tex/generic/oberdiek/hobsub-hyperref.sty
INPUT /usr/local/texlive/2015/texmf-dist/tex/generic/oberdiek/hobsub-hyperref.sty
INPUT /usr/local/texlive/2015/texmf-dist/tex/generic/oberdiek/hobsub-generic.sty
INPUT /usr/local/texlive/2015/texmf-dist/tex/generic/oberdiek/hobsub-generic.sty
INPUT /usr/local/texlive/2015/texmf-dist/tex/latex/oberdiek/auxhook.sty
INPUT /usr/local/texlive/2015/texmf-dist/tex/latex/oberdiek/auxhook.sty
INPUT /usr/local/texlive/2015/texmf-dist/tex/latex/oberdiek/kvoptions.sty
INPUT /usr/local/texlive/2015/texmf-dist/tex/latex/oberdiek/kvoptions.sty
INPUT /usr/local/texlive/2015/texmf-dist/tex/latex/hyperref/pd1enc.def
INPUT /usr/local/texlive/2015/texmf-dist/tex/latex/hyperref/pd1enc.def
INPUT /usr/local/texlive/2015/texmf-dist/tex/latex/latexconfig/hyperref.cfg
INPUT /usr/local/texlive/2015/texmf-dist/tex/latex/latexconfig/hyperref.cfg
INPUT /usr/local/texlive/2015/texmf-dist/tex/latex/url/url.sty
INPUT /usr/local/texlive/2015/texmf-dist/tex/latex/url/url.sty
INPUT /usr/local/texlive/2015/texmf-dist/tex/latex/hyperref/hpdftex.def
INPUT /usr/local/texlive/2015/texmf-dist/tex/latex/hyperref/hpdftex.def
INPUT /usr/local/texlive/2015/texmf-dist/tex/latex/oberdiek/rerunfilecheck.sty
INPUT /usr/local/texlive/2015/texmf-dist/tex/latex/oberdiek/rerunfilecheck.sty
INPUT /usr/local/texlive/2015/texmf-dist/tex/latex/beamer/beamerbaserequires.sty
INPUT /usr/local/texlive/2015/texmf-dist/tex/latex/beamer/beamerbaserequires.sty
INPUT /usr/local/texlive/2015/texmf-dist/tex/latex/beamer/beamerbasecompatibility.sty
INPUT /usr/local/texlive/2015/texmf-dist/tex/latex/beamer/beamerbasecompatibility.sty
INPUT /usr/local/texlive/2015/texmf-dist/tex/latex/beamer/beamerbasefont.sty
INPUT /usr/local/texlive/2015/texmf-dist/tex/latex/beamer/beamerbasefont.sty
INPUT /usr/local/texlive/2015/texmf-dist/tex/latex/amsfonts/amssymb.sty
INPUT /usr/local/texlive/2015/texmf-dist/tex/latex/amsfonts/amssymb.sty
INPUT /usr/local/texlive/2015/texmf-dist/tex/latex/amsfonts/amsfonts.sty
INPUT /usr/local/texlive/2015/texmf-dist/tex/latex/amsfonts/amsfonts.sty
INPUT /usr/local/texlive/2015/texmf-dist/tex/latex/sansmathaccent/sansmathaccent.sty
INPUT /usr/local/texlive/2015/texmf-dist/tex/latex/sansmathaccent/sansmathaccent.sty
INPUT /usr/local/texlive/2015/texmf-dist/tex/latex/sansmathaccent/sansmathaccent.sty
INPUT /usr/local/texlive/2015/texmf-dist/tex/latex/filehook/filehook.sty
INPUT /usr/local/texlive/2015/texmf-dist/tex/latex/filehook/filehook.sty
INPUT /usr/local/texlive/2015/texmf-dist/tex/latex/filehook/filehook.sty
INPUT /usr/local/texlive/2015/texmf-dist/tex/latex/beamer/beamerbasetranslator.sty
INPUT /usr/local/texlive/2015/texmf-dist/tex/latex/beamer/beamerbasetranslator.sty
INPUT /usr/local/texlive/2015/texmf-dist/tex/latex/beamer/translator/translator.sty
INPUT /usr/local/texlive/2015/texmf-dist/tex/latex/beamer/translator/translator.sty
INPUT /usr/local/texlive/2015/texmf-dist/tex/latex/beamer/translator/translator-language-mappings.tex
INPUT /usr/local/texlive/2015/texmf-dist/tex/latex/beamer/translator/translator-language-mappings.tex
INPUT /usr/local/texlive/2015/texmf-dist/tex/latex/beamer/beamerbasemisc.sty
INPUT /usr/local/texlive/2015/texmf-dist/tex/latex/beamer/beamerbasemisc.sty
INPUT /usr/local/texlive/2015/texmf-dist/tex/latex/beamer/beamerbasetwoscreens.sty
INPUT /usr/local/texlive/2015/texmf-dist/tex/latex/beamer/beamerbasetwoscreens.sty
INPUT /usr/local/texlive/2015/texmf-dist/tex/latex/beamer/beamerbaseoverlay.sty
INPUT /usr/local/texlive/2015/texmf-dist/tex/latex/beamer/beamerbaseoverlay.sty
INPUT /usr/local/texlive/2015/texmf-dist/tex/latex/beamer/beamerbasetitle.sty
INPUT /usr/local/texlive/2015/texmf-dist/tex/latex/beamer/beamerbasetitle.sty
INPUT /usr/local/texlive/2015/texmf-dist/tex/latex/beamer/beamerbasesection.sty
INPUT /usr/local/texlive/2015/texmf-dist/tex/latex/beamer/beamerbasesection.sty
INPUT /usr/local/texlive/2015/texmf-dist/tex/latex/beamer/beamerbaseframe.sty
INPUT /usr/local/texlive/2015/texmf-dist/tex/latex/beamer/beamerbaseframe.sty
INPUT /usr/local/texlive/2015/texmf-dist/tex/latex/beamer/beamerbaseverbatim.sty
INPUT /usr/local/texlive/2015/texmf-dist/tex/latex/beamer/beamerbaseverbatim.sty
INPUT /usr/local/texlive/2015/texmf-dist/tex/latex/beamer/beamerbaseframesize.sty
INPUT /usr/local/texlive/2015/texmf-dist/tex/latex/beamer/beamerbaseframesize.sty
INPUT /usr/local/texlive/2015/texmf-dist/tex/latex/beamer/beamerbaseframecomponents.sty
INPUT /usr/local/texlive/2015/texmf-dist/tex/latex/beamer/beamerbaseframecomponents.sty
INPUT /usr/local/texlive/2015/texmf-dist/tex/latex/beamer/beamerbasecolor.sty
INPUT /usr/local/texlive/2015/texmf-dist/tex/latex/beamer/beamerbasecolor.sty
INPUT /usr/local/texlive/2015/texmf-dist/tex/latex/beamer/beamerbasenotes.sty
INPUT /usr/local/texlive/2015/texmf-dist/tex/latex/beamer/beamerbasenotes.sty
INPUT /usr/local/texlive/2015/texmf-dist/tex/latex/beamer/beamerbasetoc.sty
INPUT /usr/local/texlive/2015/texmf-dist/tex/latex/beamer/beamerbasetoc.sty
INPUT /usr/local/texlive/2015/texmf-dist/tex/latex/beamer/beamerbasetemplates.sty
INPUT /usr/local/texlive/2015/texmf-dist/tex/latex/beamer/beamerbasetemplates.sty
INPUT /usr/local/texlive/2015/texmf-dist/tex/latex/beamer/beamerbaseauxtemplates.sty
INPUT /usr/local/texlive/2015/texmf-dist/tex/latex/beamer/beamerbaseauxtemplates.sty
INPUT /usr/local/texlive/2015/texmf-dist/tex/latex/beamer/beamerbaseboxes.sty
INPUT /usr/local/texlive/2015/texmf-dist/tex/latex/beamer/beamerbaseboxes.sty
INPUT /usr/local/texlive/2015/texmf-dist/tex/latex/beamer/beamerbaselocalstructure.sty
INPUT /usr/local/texlive/2015/texmf-dist/tex/latex/beamer/beamerbaselocalstructure.sty
INPUT /usr/local/texlive/2015/texmf-dist/tex/latex/tools/enumerate.sty
INPUT /usr/local/texlive/2015/texmf-dist/tex/latex/tools/enumerate.sty
INPUT /usr/local/texlive/2015/texmf-dist/tex/latex/beamer/beamerbasenavigation.sty
INPUT /usr/local/texlive/2015/texmf-dist/tex/latex/beamer/beamerbasenavigation.sty
INPUT /usr/local/texlive/2015/texmf-dist/tex/latex/beamer/beamerbasetheorems.sty
INPUT /usr/local/texlive/2015/texmf-dist/tex/latex/beamer/beamerbasetheorems.sty
INPUT /usr/local/texlive/2015/texmf-dist/tex/latex/amsmath/amsmath.sty
INPUT /usr/local/texlive/2015/texmf-dist/tex/latex/amsmath/amsmath.sty
INPUT /usr/local/texlive/2015/texmf-dist/tex/latex/amsmath/amstext.sty
INPUT /usr/local/texlive/2015/texmf-dist/tex/latex/amsmath/amstext.sty
INPUT /usr/local/texlive/2015/texmf-dist/tex/latex/amsmath/amsgen.sty
INPUT /usr/local/texlive/2015/texmf-dist/tex/latex/amsmath/amsgen.sty
INPUT /usr/local/texlive/2015/texmf-dist/tex/latex/amsmath/amsbsy.sty
INPUT /usr/local/texlive/2015/texmf-dist/tex/latex/amsmath/amsbsy.sty
INPUT /usr/local/texlive/2015/texmf-dist/tex/latex/amsmath/amsopn.sty
INPUT /usr/local/texlive/2015/texmf-dist/tex/latex/amsmath/amsopn.sty
INPUT /usr/local/texlive/2015/texmf-dist/tex/latex/amscls/amsthm.sty
INPUT /usr/local/texlive/2015/texmf-dist/tex/latex/amscls/amsthm.sty
INPUT /usr/local/texlive/2015/texmf-dist/tex/latex/beamer/beamerbasethemes.sty
INPUT /usr/local/texlive/2015/texmf-dist/tex/latex/beamer/beamerbasethemes.sty
INPUT /usr/local/texlive/2015/texmf-dist/fonts/tfm/public/cm/cmss10.tfm
INPUT /usr/local/texlive/2015/texmf-dist/tex/latex/beamer/themes/theme/beamerthemedefault.sty
INPUT /usr/local/texlive/2015/texmf-dist/tex/latex/beamer/themes/theme/beamerthemedefault.sty
INPUT /usr/local/texlive/2015/texmf-dist/tex/latex/beamer/themes/font/beamerfontthemedefault.sty
INPUT /usr/local/texlive/2015/texmf-dist/tex/latex/beamer/themes/font/beamerfontthemedefault.sty
INPUT /usr/local/texlive/2015/texmf-dist/tex/latex/beamer/themes/color/beamercolorthemedefault.sty
INPUT /usr/local/texlive/2015/texmf-dist/tex/latex/beamer/themes/color/beamercolorthemedefault.sty
INPUT /usr/local/texlive/2015/texmf-dist/tex/latex/beamer/themes/inner/beamerinnerthemedefault.sty
INPUT /usr/local/texlive/2015/texmf-dist/tex/latex/beamer/themes/inner/beamerinnerthemedefault.sty
INPUT /usr/local/texlive/2015/texmf-dist/tex/latex/beamer/art/beamericonbook.pdf
OUTPUT vein .pdf
INPUT /usr/local/texlive/2015/texmf-dist/tex/latex/beamer/art/beamericonbook.pdf
INPUT /usr/local/texlive/2015/texmf-dist/tex/latex/beamer/art/beamericonbook.20.pdf
INPUT /usr/local/texlive/2015/texmf-dist/tex/latex/beamer/art/beamericonbook.20.pdf
INPUT /usr/local/texlive/2015/texmf-dist/tex/latex/beamer/art/beamericonarticle.pdf
INPUT /usr/local/texlive/2015/texmf-dist/tex/latex/beamer/art/beamericonarticle.pdf
INPUT /usr/local/texlive/2015/texmf-dist/tex/latex/beamer/art/beamericonarticle.20.pdf
INPUT /usr/local/texlive/2015/texmf-dist/tex/latex/beamer/art/beamericonarticle.20.pdf
INPUT /usr/local/texlive/2015/texmf-dist/tex/latex/beamer/art/beamericononline.pdf
INPUT /usr/local/texlive/2015/texmf-dist/tex/latex/beamer/art/beamericononline.pdf
INPUT /usr/local/texlive/2015/texmf-dist/tex/latex/beamer/art/beamericononline.20.pdf
INPUT /usr/local/texlive/2015/texmf-dist/tex/latex/beamer/art/beamericononline.20.pdf
INPUT /usr/local/texlive/2015/texmf-dist/tex/latex/beamer/themes/outer/beamerouterthemedefault.sty
INPUT /usr/local/texlive/2015/texmf-dist/tex/latex/beamer/themes/outer/beamerouterthemedefault.sty
INPUT /usr/local/texlive/2015/texmf-dist/tex/latex/beamer/themes/font/beamerfontthemeserif.sty
INPUT /usr/local/texlive/2015/texmf-dist/tex/latex/beamer/themes/font/beamerfontthemeserif.sty
INPUT /usr/local/texlive/2015/texmf-dist/tex/generic/babel/babel.sty
INPUT /usr/local/texlive/2015/texmf-dist/tex/generic/babel/babel.sty
INPUT /usr/local/texlive/2015/texmf-dist/tex/generic/babel-english/english.ldf
INPUT /usr/local/texlive/2015/texmf-dist/tex/generic/babel-english/english.ldf
INPUT /usr/local/texlive/2015/texmf-dist/tex/generic/babel/babel.def
INPUT /usr/local/texlive/2015/texmf-dist/tex/latex/base/inputenc.sty
INPUT /usr/local/texlive/2015/texmf-dist/tex/latex/base/inputenc.sty
INPUT /usr/local/texlive/2015/texmf-dist/tex/latex/ucs/utf8x.def
INPUT /usr/local/texlive/2015/texmf-dist/tex/latex/ucs/utf8x.def
INPUT /usr/local/texlive/2015/texmf-dist/tex/latex/ucs/ucs.sty
INPUT /usr/local/texlive/2015/texmf-dist/tex/latex/ucs/ucs.sty
INPUT /usr/local/texlive/2015/texmf-dist/tex/latex/ucs/data/uni-global.def
INPUT /usr/local/texlive/2015/texmf-dist/tex/latex/ucs/data/uni-global.def
INPUT /usr/local/texlive/2015/texmf-dist/tex/generic/chemfig/chemfig.sty
INPUT /usr/local/texlive/2015/texmf-dist/tex/generic/chemfig/chemfig.sty
INPUT /usr/local/texlive/2015/texmf-dist/tex/latex/pgf/frontendlayer/tikz.sty
INPUT /usr/local/texlive/2015/texmf-dist/tex/latex/pgf/frontendlayer/tikz.sty
INPUT /usr/local/texlive/2015/texmf-dist/tex/latex/pgf/basiclayer/pgf.sty
INPUT /usr/local/texlive/2015/texmf-dist/tex/latex/pgf/basiclayer/pgf.sty
INPUT /usr/local/texlive/2015/texmf-dist/tex/generic/pgf/modules/pgfmoduleshapes.code.tex
INPUT /usr/local/texlive/2015/texmf-dist/tex/generic/pgf/modules/pgfmoduleplot.code.tex
INPUT /usr/local/texlive/2015/texmf-dist/tex/latex/pgf/compatibility/pgfcomp-version-0-65.sty
INPUT /usr/local/texlive/2015/texmf-dist/tex/latex/pgf/compatibility/pgfcomp-version-0-65.sty
INPUT /usr/local/texlive/2015/texmf-dist/tex/latex/pgf/compatibility/pgfcomp-version-1-18.sty
INPUT /usr/local/texlive/2015/texmf-dist/tex/latex/pgf/compatibility/pgfcomp-version-1-18.sty
INPUT /usr/local/texlive/2015/texmf-dist/tex/latex/pgf/utilities/pgffor.sty
INPUT /usr/local/texlive/2015/texmf-dist/tex/latex/pgf/utilities/pgffor.sty
INPUT /usr/local/texlive/2015/texmf-dist/tex/latex/pgf/utilities/pgfkeys.sty
INPUT /usr/local/texlive/2015/texmf-dist/tex/latex/pgf/utilities/pgfkeys.sty
INPUT /usr/local/texlive/2015/texmf-dist/tex/generic/pgf/utilities/pgfkeys.code.tex
INPUT /usr/local/texlive/2015/texmf-dist/tex/generic/pgf/utilities/pgfkeys.code.tex
INPUT /usr/local/texlive/2015/texmf-dist/tex/latex/pgf/math/pgfmath.sty
INPUT /usr/local/texlive/2015/texmf-dist/tex/latex/pgf/math/pgfmath.sty
INPUT /usr/local/texlive/2015/texmf-dist/tex/generic/pgf/math/pgfmath.code.tex
INPUT /usr/local/texlive/2015/texmf-dist/tex/generic/pgf/math/pgfmath.code.tex
INPUT /usr/local/texlive/2015/texmf-dist/tex/generic/pgf/utilities/pgffor.code.tex
INPUT /usr/local/texlive/2015/texmf-dist/tex/generic/pgf/utilities/pgffor.code.tex
INPUT /usr/local/texlive/2015/texmf-dist/tex/generic/pgf/math/pgfmath.code.tex
INPUT /usr/local/texlive/2015/texmf-dist/tex/generic/pgf/frontendlayer/tikz/tikz.code.tex
INPUT /usr/local/texlive/2015/texmf-dist/tex/generic/pgf/frontendlayer/tikz/tikz.code.tex
INPUT /usr/local/texlive/2015/texmf-dist/tex/generic/pgf/libraries/pgflibraryplothandlers.code.tex
INPUT /usr/local/texlive/2015/texmf-dist/tex/generic/pgf/libraries/pgflibraryplothandlers.code.tex
INPUT /usr/local/texlive/2015/texmf-dist/tex/generic/pgf/modules/pgfmodulematrix.code.tex
INPUT /usr/local/texlive/2015/texmf-dist/tex/generic/pgf/frontendlayer/tikz/libraries/tikzlibrarytopaths.code.tex
INPUT /usr/local/texlive/2015/texmf-dist/tex/generic/pgf/frontendlayer/tikz/libraries/tikzlibrarytopaths.code.tex
INPUT /usr/local/texlive/2015/texmf-dist/tex/generic/chemfig/chemfig.tex
INPUT /usr/local/texlive/2015/texmf-dist/tex/latex/mhchem/mhchem.sty
INPUT /usr/local/texlive/2015/texmf-dist/tex/latex/mhchem/mhchem.sty
INPUT /usr/local/texlive/2015/texmf-dist/tex/latex/l3kernel/expl3.sty
INPUT /usr/local/texlive/2015/texmf-dist/tex/latex/l3kernel/expl3.sty
INPUT /usr/local/texlive/2015/texmf-dist/tex/latex/l3kernel/expl3-code.tex
INPUT /usr/local/texlive/2015/texmf-dist/tex/latex/l3kernel/expl3-code.tex
INPUT /usr/local/texlive/2015/texmf-dist/tex/latex/l3kernel/l3unicode-data.def
INPUT /usr/local/texlive/2015/texmf-dist/tex/latex/l3kernel/l3unicode-data.def
INPUT /usr/local/texlive/2015/texmf-dist/tex/latex/l3kernel/l3pdfmode.def
INPUT /usr/local/texlive/2015/texmf-dist/tex/latex/l3kernel/l3pdfmode.def
INPUT /usr/local/texlive/2015/texmf-dist/tex/latex/l3packages/l3keys2e/l3keys2e.sty
INPUT /usr/local/texlive/2015/texmf-dist/tex/latex/l3packages/l3keys2e/l3keys2e.sty
INPUT /usr/local/texlive/2015/texmf-dist/tex/latex/l3experimental/l3str/l3regex.sty
INPUT /usr/local/texlive/2015/texmf-dist/tex/latex/l3experimental/l3str/l3regex.sty
INPUT /usr/local/texlive/2015/texmf-dist/tex/latex/l3experimental/l3str/l3tl-build.sty
INPUT /usr/local/texlive/2015/texmf-dist/tex/latex/l3experimental/l3str/l3tl-build.sty
INPUT /usr/local/texlive/2015/texmf-dist/tex/latex/l3experimental/l3str/l3tl-analysis.sty
INPUT /usr/local/texlive/2015/texmf-dist/tex/latex/l3experimental/l3str/l3tl-analysis.sty
INPUT /usr/local/texlive/2015/texmf-dist/tex/latex/l3experimental/l3str/l3str.sty
INPUT /usr/local/texlive/2015/texmf-dist/tex/latex/l3experimental/l3str/l3str.sty
INPUT /usr/local/texlive/2015/texmf-dist/tex/latex/l3experimental/l3str/l3flag.sty
INPUT /usr/local/texlive/2015/texmf-dist/tex/latex/l3experimental/l3str/l3flag.sty
INPUT /usr/local/texlive/2015/texmf-dist/tex/latex/l3experimental/l3str/l3str-convert.sty
INPUT /usr/local/texlive/2015/texmf-dist/tex/latex/l3experimental/l3str/l3str-convert.sty
INPUT /usr/local/texlive/2015/texmf-dist/tex/latex/tools/calc.sty
INPUT /usr/local/texlive/2015/texmf-dist/tex/latex/tools/calc.sty
INPUT /usr/local/texlive/2015/texmf-dist/tex/latex/chemgreek/chemgreek.sty
INPUT /usr/local/texlive/2015/texmf-dist/tex/latex/chemgreek/chemgreek.sty
INPUT /usr/local/texlive/2015/texmf-dist/tex/latex/l3packages/xparse/xparse.sty
INPUT /usr/local/texlive/2015/texmf-dist/tex/latex/l3packages/xparse/xparse.sty
INPUT /usr/local/texlive/2015/texmf-dist/tex/latex/base/ifthen.sty
INPUT /usr/local/texlive/2015/texmf-dist/tex/latex/base/ifthen.sty
INPUT /usr/local/texlive/2015/texmf-dist/tex/latex/jknapltx/mathrsfs.sty
INPUT /usr/local/texlive/2015/texmf-dist/tex/latex/jknapltx/mathrsfs.sty
INPUT /usr/local/texlive/2015/texmf-dist/tex/latex/oberdiek/picture.sty
INPUT /usr/local/texlive/2015/texmf-dist/tex/latex/oberdiek/picture.sty
INPUT /usr/local/texlive/2015/texmf-dist/tex/latex/pgf/utilities/pgfpages.sty
INPUT /usr/local/texlive/2015/texmf-dist/tex/latex/pgf/utilities/pgfpages.sty
INPUT vein .aux
INPUT vein .aux
OUTPUT vein .aux
INPUT /usr/local/texlive/2015/texmf-dist/tex/context/base/supp-pdf.mkii
INPUT /usr/local/texlive/2015/texmf-dist/tex/context/base/supp-pdf.mkii
INPUT /usr/local/texlive/2015/texmf-dist/tex/latex/oberdiek/epstopdf-base.sty
INPUT /usr/local/texlive/2015/texmf-dist/tex/latex/oberdiek/epstopdf-base.sty
INPUT /usr/local/texlive/2015/texmf-dist/tex/latex/oberdiek/grfext.sty
INPUT /usr/local/texlive/2015/texmf-dist/tex/latex/oberdiek/grfext.sty
INPUT /usr/local/texlive/2015/texmf-dist/tex/latex/latexconfig/epstopdf-sys.cfg
INPUT /usr/local/texlive/2015/texmf-dist/tex/latex/latexconfig/epstopdf-sys.cfg
INPUT /usr/local/texlive/2015/texmf-dist/tex/latex/hyperref/nameref.sty
INPUT /usr/local/texlive/2015/texmf-dist/tex/latex/hyperref/nameref.sty
INPUT /usr/local/texlive/2015/texmf-dist/tex/generic/oberdiek/gettitlestring.sty
INPUT /usr/local/texlive/2015/texmf-dist/tex/generic/oberdiek/gettitlestring.sty
INPUT vein .out
INPUT vein .out
INPUT vein .out
INPUT vein .out
INPUT ./vein .out
INPUT ./vein .out
OUTPUT vein .out
INPUT /usr/local/texlive/2015/texmf-dist/tex/latex/beamer/translator/dicts/translator-basic-dictionary/translator-basic-dictionary-English.dict
INPUT /usr/local/texlive/2015/texmf-dist/tex/latex/beamer/translator/dicts/translator-basic-dictionary/translator-basic-dictionary-English.dict
INPUT /usr/local/texlive/2015/texmf-dist/tex/latex/beamer/translator/dicts/translator-bibliography-dictionary/translator-bibliography-dictionary-English.dict
INPUT /usr/local/texlive/2015/texmf-dist/tex/latex/beamer/translator/dicts/translator-bibliography-dictionary/translator-bibliography-dictionary-English.dict
INPUT /usr/local/texlive/2015/texmf-dist/tex/latex/beamer/translator/dicts/translator-environment-dictionary/translator-environment-dictionary-English.dict
INPUT /usr/local/texlive/2015/texmf-dist/tex/latex/beamer/translator/dicts/translator-environment-dictionary/translator-environment-dictionary-English.dict
INPUT /usr/local/texlive/2015/texmf-dist/tex/latex/beamer/translator/dicts/translator-months-dictionary/translator-months-dictionary-English.dict
INPUT /usr/local/texlive/2015/texmf-dist/tex/latex/beamer/translator/dicts/translator-months-dictionary/translator-months-dictionary-English.dict
INPUT /usr/local/texlive/2015/texmf-dist/tex/latex/beamer/translator/dicts/translator-numbers-dictionary/translator-numbers-dictionary-English.dict
INPUT /usr/local/texlive/2015/texmf-dist/tex/latex/beamer/translator/dicts/translator-numbers-dictionary/translator-numbers-dictionary-English.dict
INPUT /usr/local/texlive/2015/texmf-dist/tex/latex/beamer/translator/dicts/translator-theorem-dictionary/translator-theorem-dictionary-English.dict
INPUT /usr/local/texlive/2015/texmf-dist/tex/latex/beamer/translator/dicts/translator-theorem-dictionary/translator-theorem-dictionary-English.dict
INPUT /usr/local/texlive/2015/texmf-dist/tex/latex/ucs/ucsencs.def
INPUT /usr/local/texlive/2015/texmf-dist/tex/latex/ucs/ucsencs.def
INPUT vein .nav
INPUT vein .nav
INPUT /usr/local/texlive/2015/texmf-dist/fonts/tfm/public/cm/cmr6.tfm
OUTPUT vein .nav
OUTPUT vein .toc
OUTPUT vein .snm
INPUT /usr/local/texlive/2015/texmf-var/fonts/map/pdftex/updmap/pdftex.map
INPUT vein .aux
INPUT ./vein .out
INPUT ./vein .out
INPUT /usr/local/texlive/2015/texmf-dist/fonts/type1/public/amsfonts/cm/cmr10.pfb
