PWD /Users/luansitao/Documents/Introduction to Probability and Statistics/Chapter 3
INPUT /usr/local/texlive/2015/texmf.cnf
INPUT /usr/local/texlive/2015/texmf-dist/web2c/texmf.cnf
INPUT /usr/local/texlive/2015/texmf-var/web2c/pdftex/pdflatex.fmt
INPUT vein_graph4.tex
OUTPUT vein_graph4.log
INPUT /usr/local/texlive/2015/texmf-dist/tex/latex/base/article.cls
INPUT /usr/local/texlive/2015/texmf-dist/tex/latex/base/article.cls
INPUT /usr/local/texlive/2015/texmf-dist/tex/latex/base/size10.clo
INPUT /usr/local/texlive/2015/texmf-dist/tex/latex/base/size10.clo
INPUT /usr/local/texlive/2015/texmf-dist/tex/generic/babel/babel.sty
INPUT /usr/local/texlive/2015/texmf-dist/tex/generic/babel/babel.sty
INPUT /usr/local/texlive/2015/texmf-dist/tex/generic/babel-english/english.ldf
INPUT /usr/local/texlive/2015/texmf-dist/tex/generic/babel-english/english.ldf
INPUT /usr/local/texlive/2015/texmf-dist/tex/generic/babel/babel.def
INPUT /usr/local/texlive/2015/texmf-dist/tex/latex/base/inputenc.sty
INPUT /usr/local/texlive/2015/texmf-dist/tex/latex/base/inputenc.sty
INPUT /usr/local/texlive/2015/texmf-dist/tex/latex/ucs/utf8x.def
INPUT /usr/local/texlive/2015/texmf-dist/tex/latex/ucs/utf8x.def
INPUT /usr/local/texlive/2015/texmf-dist/tex/latex/ucs/ucs.sty
INPUT /usr/local/texlive/2015/texmf-dist/tex/latex/ucs/ucs.sty
INPUT /usr/local/texlive/2015/texmf-dist/tex/latex/ucs/data/uni-global.def
INPUT /usr/local/texlive/2015/texmf-dist/tex/latex/ucs/data/uni-global.def
INPUT /usr/local/texlive/2015/texmf-dist/tex/generic/chemfig/chemfig.sty
INPUT /usr/local/texlive/2015/texmf-dist/tex/generic/chemfig/chemfig.sty
INPUT /usr/local/texlive/2015/texmf-dist/tex/latex/pgf/frontendlayer/tikz.sty
INPUT /usr/local/texlive/2015/texmf-dist/tex/latex/pgf/frontendlayer/tikz.sty
INPUT /usr/local/texlive/2015/texmf-dist/tex/latex/pgf/basiclayer/pgf.sty
INPUT /usr/local/texlive/2015/texmf-dist/tex/latex/pgf/basiclayer/pgf.sty
INPUT /usr/local/texlive/2015/texmf-dist/tex/latex/pgf/utilities/pgfrcs.sty
INPUT /usr/local/texlive/2015/texmf-dist/tex/latex/pgf/utilities/pgfrcs.sty
INPUT /usr/local/texlive/2015/texmf-dist/tex/generic/pgf/utilities/pgfutil-common.tex
INPUT /usr/local/texlive/2015/texmf-dist/tex/generic/pgf/utilities/pgfutil-common-lists.tex
INPUT /usr/local/texlive/2015/texmf-dist/tex/generic/pgf/utilities/pgfutil-latex.def
INPUT /usr/local/texlive/2015/texmf-dist/tex/latex/ms/everyshi.sty
INPUT /usr/local/texlive/2015/texmf-dist/tex/latex/ms/everyshi.sty
INPUT /usr/local/texlive/2015/texmf-dist/tex/generic/pgf/utilities/pgfrcs.code.tex
INPUT /usr/local/texlive/2015/texmf-dist/tex/generic/pgf/utilities/pgfrcs.code.tex
INPUT /usr/local/texlive/2015/texmf-dist/tex/latex/pgf/basiclayer/pgfcore.sty
INPUT /usr/local/texlive/2015/texmf-dist/tex/latex/pgf/basiclayer/pgfcore.sty
INPUT /usr/local/texlive/2015/texmf-dist/tex/latex/graphics/graphicx.sty
INPUT /usr/local/texlive/2015/texmf-dist/tex/latex/graphics/graphicx.sty
INPUT /usr/local/texlive/2015/texmf-dist/tex/latex/graphics/keyval.sty
INPUT /usr/local/texlive/2015/texmf-dist/tex/latex/graphics/keyval.sty
INPUT /usr/local/texlive/2015/texmf-dist/tex/latex/graphics/graphics.sty
INPUT /usr/local/texlive/2015/texmf-dist/tex/latex/graphics/graphics.sty
INPUT /usr/local/texlive/2015/texmf-dist/tex/latex/graphics/trig.sty
INPUT /usr/local/texlive/2015/texmf-dist/tex/latex/graphics/trig.sty
INPUT /usr/local/texlive/2015/texmf-dist/tex/latex/latexconfig/graphics.cfg
INPUT /usr/local/texlive/2015/texmf-dist/tex/latex/latexconfig/graphics.cfg
INPUT /usr/local/texlive/2015/texmf-dist/tex/latex/pdftex-def/pdftex.def
INPUT /usr/local/texlive/2015/texmf-dist/tex/latex/pdftex-def/pdftex.def
INPUT /usr/local/texlive/2015/texmf-dist/tex/generic/oberdiek/infwarerr.sty
INPUT /usr/local/texlive/2015/texmf-dist/tex/generic/oberdiek/infwarerr.sty
INPUT /usr/local/texlive/2015/texmf-dist/tex/generic/oberdiek/ltxcmds.sty
INPUT /usr/local/texlive/2015/texmf-dist/tex/generic/oberdiek/ltxcmds.sty
INPUT /usr/local/texlive/2015/texmf-dist/tex/latex/pgf/systemlayer/pgfsys.sty
INPUT /usr/local/texlive/2015/texmf-dist/tex/latex/pgf/systemlayer/pgfsys.sty
INPUT /usr/local/texlive/2015/texmf-dist/tex/generic/pgf/systemlayer/pgfsys.code.tex
INPUT /usr/local/texlive/2015/texmf-dist/tex/generic/pgf/systemlayer/pgfsys.code.tex
INPUT /usr/local/texlive/2015/texmf-dist/tex/generic/pgf/utilities/pgfkeys.code.tex
INPUT /usr/local/texlive/2015/texmf-dist/tex/generic/pgf/utilities/pgfkeysfiltered.code.tex
INPUT /usr/local/texlive/2015/texmf-dist/tex/generic/pgf/systemlayer/pgf.cfg
INPUT /usr/local/texlive/2015/texmf-dist/tex/generic/pgf/systemlayer/pgfsys-pdftex.def
INPUT /usr/local/texlive/2015/texmf-dist/tex/generic/pgf/systemlayer/pgfsys-pdftex.def
INPUT /usr/local/texlive/2015/texmf-dist/tex/generic/pgf/systemlayer/pgfsys-common-pdf.def
INPUT /usr/local/texlive/2015/texmf-dist/tex/generic/pgf/systemlayer/pgfsyssoftpath.code.tex
INPUT /usr/local/texlive/2015/texmf-dist/tex/generic/pgf/systemlayer/pgfsyssoftpath.code.tex
INPUT /usr/local/texlive/2015/texmf-dist/tex/generic/pgf/systemlayer/pgfsysprotocol.code.tex
INPUT /usr/local/texlive/2015/texmf-dist/tex/generic/pgf/systemlayer/pgfsysprotocol.code.tex
INPUT /usr/local/texlive/2015/texmf-dist/tex/latex/xcolor/xcolor.sty
INPUT /usr/local/texlive/2015/texmf-dist/tex/latex/xcolor/xcolor.sty
INPUT /usr/local/texlive/2015/texmf-dist/tex/latex/latexconfig/color.cfg
INPUT /usr/local/texlive/2015/texmf-dist/tex/latex/latexconfig/color.cfg
INPUT /usr/local/texlive/2015/texmf-dist/tex/generic/pgf/basiclayer/pgfcore.code.tex
INPUT /usr/local/texlive/2015/texmf-dist/tex/generic/pgf/basiclayer/pgfcore.code.tex
INPUT /usr/local/texlive/2015/texmf-dist/tex/generic/pgf/math/pgfmath.code.tex
INPUT /usr/local/texlive/2015/texmf-dist/tex/generic/pgf/math/pgfmathcalc.code.tex
INPUT /usr/local/texlive/2015/texmf-dist/tex/generic/pgf/math/pgfmathutil.code.tex
INPUT /usr/local/texlive/2015/texmf-dist/tex/generic/pgf/math/pgfmathparser.code.tex
INPUT /usr/local/texlive/2015/texmf-dist/tex/generic/pgf/math/pgfmathfunctions.code.tex
INPUT /usr/local/texlive/2015/texmf-dist/tex/generic/pgf/math/pgfmathfunctions.basic.code.tex
INPUT /usr/local/texlive/2015/texmf-dist/tex/generic/pgf/math/pgfmathfunctions.trigonometric.code.tex
INPUT /usr/local/texlive/2015/texmf-dist/tex/generic/pgf/math/pgfmathfunctions.random.code.tex
INPUT /usr/local/texlive/2015/texmf-dist/tex/generic/pgf/math/pgfmathfunctions.comparison.code.tex
INPUT /usr/local/texlive/2015/texmf-dist/tex/generic/pgf/math/pgfmathfunctions.base.code.tex
INPUT /usr/local/texlive/2015/texmf-dist/tex/generic/pgf/math/pgfmathfunctions.round.code.tex
INPUT /usr/local/texlive/2015/texmf-dist/tex/generic/pgf/math/pgfmathfunctions.misc.code.tex
INPUT /usr/local/texlive/2015/texmf-dist/tex/generic/pgf/math/pgfmathfunctions.integerarithmetics.code.tex
INPUT /usr/local/texlive/2015/texmf-dist/tex/generic/pgf/math/pgfmathfloat.code.tex
INPUT /usr/local/texlive/2015/texmf-dist/tex/generic/pgf/basiclayer/pgfcorepoints.code.tex
INPUT /usr/local/texlive/2015/texmf-dist/tex/generic/pgf/basiclayer/pgfcorepathconstruct.code.tex
INPUT /usr/local/texlive/2015/texmf-dist/tex/generic/pgf/basiclayer/pgfcorepathusage.code.tex
INPUT /usr/local/texlive/2015/texmf-dist/tex/generic/pgf/basiclayer/pgfcorescopes.code.tex
INPUT /usr/local/texlive/2015/texmf-dist/tex/generic/pgf/basiclayer/pgfcoregraphicstate.code.tex
INPUT /usr/local/texlive/2015/texmf-dist/tex/generic/pgf/basiclayer/pgfcoretransformations.code.tex
INPUT /usr/local/texlive/2015/texmf-dist/tex/generic/pgf/basiclayer/pgfcorequick.code.tex
INPUT /usr/local/texlive/2015/texmf-dist/tex/generic/pgf/basiclayer/pgfcoreobjects.code.tex
INPUT /usr/local/texlive/2015/texmf-dist/tex/generic/pgf/basiclayer/pgfcorepathprocessing.code.tex
INPUT /usr/local/texlive/2015/texmf-dist/tex/generic/pgf/basiclayer/pgfcorearrows.code.tex
INPUT /usr/local/texlive/2015/texmf-dist/tex/generic/pgf/basiclayer/pgfcoreshade.code.tex
INPUT /usr/local/texlive/2015/texmf-dist/tex/generic/pgf/basiclayer/pgfcoreimage.code.tex
INPUT /usr/local/texlive/2015/texmf-dist/tex/generic/pgf/basiclayer/pgfcoreexternal.code.tex
INPUT /usr/local/texlive/2015/texmf-dist/tex/generic/pgf/basiclayer/pgfcorelayers.code.tex
INPUT /usr/local/texlive/2015/texmf-dist/tex/generic/pgf/basiclayer/pgfcoretransparency.code.tex
INPUT /usr/local/texlive/2015/texmf-dist/tex/generic/pgf/basiclayer/pgfcorepatterns.code.tex
INPUT /usr/local/texlive/2015/texmf-dist/tex/generic/pgf/modules/pgfmoduleshapes.code.tex
INPUT /usr/local/texlive/2015/texmf-dist/tex/generic/pgf/modules/pgfmoduleplot.code.tex
INPUT /usr/local/texlive/2015/texmf-dist/tex/latex/pgf/compatibility/pgfcomp-version-0-65.sty
INPUT /usr/local/texlive/2015/texmf-dist/tex/latex/pgf/compatibility/pgfcomp-version-0-65.sty
INPUT /usr/local/texlive/2015/texmf-dist/tex/latex/pgf/compatibility/pgfcomp-version-1-18.sty
INPUT /usr/local/texlive/2015/texmf-dist/tex/latex/pgf/compatibility/pgfcomp-version-1-18.sty
INPUT /usr/local/texlive/2015/texmf-dist/tex/latex/pgf/utilities/pgffor.sty
INPUT /usr/local/texlive/2015/texmf-dist/tex/latex/pgf/utilities/pgffor.sty
INPUT /usr/local/texlive/2015/texmf-dist/tex/latex/pgf/utilities/pgfkeys.sty
INPUT /usr/local/texlive/2015/texmf-dist/tex/latex/pgf/utilities/pgfkeys.sty
INPUT /usr/local/texlive/2015/texmf-dist/tex/generic/pgf/utilities/pgfkeys.code.tex
INPUT /usr/local/texlive/2015/texmf-dist/tex/generic/pgf/utilities/pgfkeys.code.tex
INPUT /usr/local/texlive/2015/texmf-dist/tex/latex/pgf/math/pgfmath.sty
INPUT /usr/local/texlive/2015/texmf-dist/tex/latex/pgf/math/pgfmath.sty
INPUT /usr/local/texlive/2015/texmf-dist/tex/generic/pgf/math/pgfmath.code.tex
INPUT /usr/local/texlive/2015/texmf-dist/tex/generic/pgf/math/pgfmath.code.tex
INPUT /usr/local/texlive/2015/texmf-dist/tex/generic/pgf/utilities/pgffor.code.tex
INPUT /usr/local/texlive/2015/texmf-dist/tex/generic/pgf/utilities/pgffor.code.tex
INPUT /usr/local/texlive/2015/texmf-dist/tex/generic/pgf/math/pgfmath.code.tex
INPUT /usr/local/texlive/2015/texmf-dist/tex/generic/pgf/frontendlayer/tikz/tikz.code.tex
INPUT /usr/local/texlive/2015/texmf-dist/tex/generic/pgf/frontendlayer/tikz/tikz.code.tex
INPUT /usr/local/texlive/2015/texmf-dist/tex/generic/pgf/libraries/pgflibraryplothandlers.code.tex
INPUT /usr/local/texlive/2015/texmf-dist/tex/generic/pgf/libraries/pgflibraryplothandlers.code.tex
INPUT /usr/local/texlive/2015/texmf-dist/tex/generic/pgf/modules/pgfmodulematrix.code.tex
INPUT /usr/local/texlive/2015/texmf-dist/tex/generic/pgf/frontendlayer/tikz/libraries/tikzlibrarytopaths.code.tex
INPUT /usr/local/texlive/2015/texmf-dist/tex/generic/pgf/frontendlayer/tikz/libraries/tikzlibrarytopaths.code.tex
INPUT /usr/local/texlive/2015/texmf-dist/tex/generic/chemfig/chemfig.tex
INPUT /usr/local/texlive/2015/texmf-dist/tex/latex/mhchem/mhchem.sty
INPUT /usr/local/texlive/2015/texmf-dist/tex/latex/mhchem/mhchem.sty
INPUT /usr/local/texlive/2015/texmf-dist/tex/latex/l3kernel/expl3.sty
INPUT /usr/local/texlive/2015/texmf-dist/tex/latex/l3kernel/expl3.sty
INPUT /usr/local/texlive/2015/texmf-dist/tex/latex/l3kernel/expl3-code.tex
INPUT /usr/local/texlive/2015/texmf-dist/tex/latex/l3kernel/expl3-code.tex
INPUT /usr/local/texlive/2015/texmf-dist/tex/latex/l3kernel/l3unicode-data.def
INPUT /usr/local/texlive/2015/texmf-dist/tex/latex/l3kernel/l3unicode-data.def
INPUT /usr/local/texlive/2015/texmf-dist/tex/latex/l3kernel/l3pdfmode.def
INPUT /usr/local/texlive/2015/texmf-dist/tex/latex/l3kernel/l3pdfmode.def
INPUT /usr/local/texlive/2015/texmf-dist/tex/latex/l3packages/l3keys2e/l3keys2e.sty
INPUT /usr/local/texlive/2015/texmf-dist/tex/latex/l3packages/l3keys2e/l3keys2e.sty
INPUT /usr/local/texlive/2015/texmf-dist/tex/latex/l3experimental/l3str/l3regex.sty
INPUT /usr/local/texlive/2015/texmf-dist/tex/latex/l3experimental/l3str/l3regex.sty
INPUT /usr/local/texlive/2015/texmf-dist/tex/latex/l3experimental/l3str/l3tl-build.sty
INPUT /usr/local/texlive/2015/texmf-dist/tex/latex/l3experimental/l3str/l3tl-build.sty
INPUT /usr/local/texlive/2015/texmf-dist/tex/latex/l3experimental/l3str/l3tl-analysis.sty
INPUT /usr/local/texlive/2015/texmf-dist/tex/latex/l3experimental/l3str/l3tl-analysis.sty
INPUT /usr/local/texlive/2015/texmf-dist/tex/latex/l3experimental/l3str/l3str.sty
INPUT /usr/local/texlive/2015/texmf-dist/tex/latex/l3experimental/l3str/l3str.sty
INPUT /usr/local/texlive/2015/texmf-dist/tex/latex/l3experimental/l3str/l3flag.sty
INPUT /usr/local/texlive/2015/texmf-dist/tex/latex/l3experimental/l3str/l3flag.sty
INPUT /usr/local/texlive/2015/texmf-dist/tex/latex/l3experimental/l3str/l3str-convert.sty
INPUT /usr/local/texlive/2015/texmf-dist/tex/latex/l3experimental/l3str/l3str-convert.sty
INPUT /usr/local/texlive/2015/texmf-dist/tex/latex/tools/calc.sty
INPUT /usr/local/texlive/2015/texmf-dist/tex/latex/tools/calc.sty
INPUT /usr/local/texlive/2015/texmf-dist/tex/latex/amsmath/amsmath.sty
INPUT /usr/local/texlive/2015/texmf-dist/tex/latex/amsmath/amsmath.sty
INPUT /usr/local/texlive/2015/texmf-dist/tex/latex/amsmath/amstext.sty
INPUT /usr/local/texlive/2015/texmf-dist/tex/latex/amsmath/amstext.sty
INPUT /usr/local/texlive/2015/texmf-dist/tex/latex/amsmath/amsgen.sty
INPUT /usr/local/texlive/2015/texmf-dist/tex/latex/amsmath/amsgen.sty
INPUT /usr/local/texlive/2015/texmf-dist/tex/latex/amsmath/amsbsy.sty
INPUT /usr/local/texlive/2015/texmf-dist/tex/latex/amsmath/amsbsy.sty
INPUT /usr/local/texlive/2015/texmf-dist/tex/latex/amsmath/amsopn.sty
INPUT /usr/local/texlive/2015/texmf-dist/tex/latex/amsmath/amsopn.sty
INPUT /usr/local/texlive/2015/texmf-dist/tex/latex/chemgreek/chemgreek.sty
INPUT /usr/local/texlive/2015/texmf-dist/tex/latex/chemgreek/chemgreek.sty
INPUT /usr/local/texlive/2015/texmf-dist/tex/latex/l3packages/xparse/xparse.sty
INPUT /usr/local/texlive/2015/texmf-dist/tex/latex/l3packages/xparse/xparse.sty
INPUT /usr/local/texlive/2015/texmf-dist/tex/latex/base/ifthen.sty
INPUT /usr/local/texlive/2015/texmf-dist/tex/latex/base/ifthen.sty
INPUT /usr/local/texlive/2015/texmf-dist/tex/latex/jknapltx/mathrsfs.sty
INPUT /usr/local/texlive/2015/texmf-dist/tex/latex/jknapltx/mathrsfs.sty
INPUT /usr/local/texlive/2015/texmf-dist/tex/latex/pgf/utilities/pgfpages.sty
INPUT /usr/local/texlive/2015/texmf-dist/tex/latex/pgf/utilities/pgfpages.sty
INPUT vein_graph4.aux
INPUT vein_graph4.aux
OUTPUT vein_graph4.aux
INPUT /usr/local/texlive/2015/texmf-dist/tex/latex/ucs/ucsencs.def
INPUT /usr/local/texlive/2015/texmf-dist/tex/latex/ucs/ucsencs.def
INPUT /usr/local/texlive/2015/texmf-dist/tex/context/base/supp-pdf.mkii
INPUT /usr/local/texlive/2015/texmf-dist/tex/context/base/supp-pdf.mkii
INPUT /usr/local/texlive/2015/texmf-dist/tex/generic/oberdiek/pdftexcmds.sty
INPUT /usr/local/texlive/2015/texmf-dist/tex/generic/oberdiek/pdftexcmds.sty
INPUT /usr/local/texlive/2015/texmf-dist/tex/generic/oberdiek/ifluatex.sty
INPUT /usr/local/texlive/2015/texmf-dist/tex/generic/oberdiek/ifluatex.sty
INPUT /usr/local/texlive/2015/texmf-dist/tex/generic/oberdiek/ifpdf.sty
INPUT /usr/local/texlive/2015/texmf-dist/tex/generic/oberdiek/ifpdf.sty
INPUT /usr/local/texlive/2015/texmf-dist/tex/latex/oberdiek/epstopdf-base.sty
INPUT /usr/local/texlive/2015/texmf-dist/tex/latex/oberdiek/epstopdf-base.sty
INPUT /usr/local/texlive/2015/texmf-dist/tex/latex/oberdiek/grfext.sty
INPUT /usr/local/texlive/2015/texmf-dist/tex/latex/oberdiek/grfext.sty
INPUT /usr/local/texlive/2015/texmf-dist/tex/generic/oberdiek/kvdefinekeys.sty
INPUT /usr/local/texlive/2015/texmf-dist/tex/generic/oberdiek/kvdefinekeys.sty
INPUT /usr/local/texlive/2015/texmf-dist/tex/latex/oberdiek/kvoptions.sty
INPUT /usr/local/texlive/2015/texmf-dist/tex/latex/oberdiek/kvoptions.sty
INPUT /usr/local/texlive/2015/texmf-dist/tex/generic/oberdiek/kvsetkeys.sty
INPUT /usr/local/texlive/2015/texmf-dist/tex/generic/oberdiek/kvsetkeys.sty
INPUT /usr/local/texlive/2015/texmf-dist/tex/generic/oberdiek/etexcmds.sty
INPUT /usr/local/texlive/2015/texmf-dist/tex/generic/oberdiek/etexcmds.sty
INPUT /usr/local/texlive/2015/texmf-dist/tex/latex/latexconfig/epstopdf-sys.cfg
INPUT /usr/local/texlive/2015/texmf-dist/tex/latex/latexconfig/epstopdf-sys.cfg
INPUT /usr/local/texlive/2015/texmf-dist/fonts/map/fontname/texfonts.map
INPUT /usr/local/texlive/2015/texmf-dist/fonts/tfm/public/cm/cmr17.tfm
INPUT /usr/local/texlive/2015/texmf-dist/fonts/tfm/public/cm/cmr17.tfm
INPUT /usr/local/texlive/2015/texmf-dist/fonts/tfm/public/cm/cmr17.tfm
INPUT /usr/local/texlive/2015/texmf-dist/fonts/tfm/public/cm/cmmi12.tfm
INPUT /usr/local/texlive/2015/texmf-dist/fonts/tfm/public/cm/cmmi12.tfm
INPUT /usr/local/texlive/2015/texmf-dist/fonts/tfm/public/cm/cmmi12.tfm
INPUT /usr/local/texlive/2015/texmf-dist/fonts/tfm/public/cm/cmsy10.tfm
INPUT /usr/local/texlive/2015/texmf-dist/fonts/tfm/public/cm/cmsy10.tfm
INPUT /usr/local/texlive/2015/texmf-dist/fonts/tfm/public/cm/cmsy10.tfm
INPUT /usr/local/texlive/2015/texmf-dist/fonts/tfm/public/cm/cmex10.tfm
INPUT /usr/local/texlive/2015/texmf-dist/fonts/tfm/public/cm/cmex10.tfm
INPUT /usr/local/texlive/2015/texmf-dist/fonts/tfm/public/cm/cmex10.tfm
INPUT /usr/local/texlive/2015/texmf-dist/tex/latex/jknapltx/ursfs.fd
INPUT /usr/local/texlive/2015/texmf-dist/tex/latex/jknapltx/ursfs.fd
INPUT /usr/local/texlive/2015/texmf-dist/fonts/tfm/public/rsfs/rsfs10.tfm
INPUT /usr/local/texlive/2015/texmf-dist/fonts/tfm/public/rsfs/rsfs10.tfm
INPUT /usr/local/texlive/2015/texmf-dist/fonts/tfm/public/rsfs/rsfs10.tfm
OUTPUT vein_graph4.pdf
INPUT /usr/local/texlive/2015/texmf-var/fonts/map/pdftex/updmap/pdftex.map
INPUT vein_graph4.aux
INPUT /usr/local/texlive/2015/texmf-dist/fonts/type1/public/amsfonts/cm/cmmi12.pfb
INPUT /usr/local/texlive/2015/texmf-dist/fonts/type1/public/amsfonts/cm/cmr10.pfb
